Chapter 2 KJ6 | Data 624 - KJ Assignments (HW2)
…
The 106 missing values corresponds to 1.04 of all the predictor data

missingPredictors <- Xs %>%
  tidyr::gather(predictor, value) %>%
  dplyr::group_by(predictor) %>%
  dplyr::summarise(missing = sum(is.na(value))) %>%
  dplyr::mutate(percent = (missing/sum(missing)) * 100) %>%
  dplyr::filter(missing > 0) %>%
  dplyr::arrange(desc(missing))

print(missingPredictors)

## # A tibble: 28 x 3
##    predictor              missing percent
##    <chr>                    <int>   <dbl>
##  1 ManufacturingProcess03      15   14.2 
##  2 ManufacturingProcess11      10    9.43
##  3 ManufacturingProcess10       9    8.49
##  4 ManufacturingProcess25       5    4.72
##  5 ManufacturingProcess26       5    4.72
##  6 ManufacturingProcess27       5    4.72
##  7 ManufacturingProcess28       5    4.72
##  8 ManufacturingProcess29       5    4.72
##  9 ManufacturingProcess30       5    4.72
## 10 ManufacturingProcess31       5    4.72
## # ... with 18 more rows
…
